{
    "variable": [
        {
            "id": "baseUrl",
            "key": "baseUrl",
            "type": "string",
            "name": "string",
            "value": "http:\/\/localhost"
        }
    ],
    "info": {
        "name": "Laravel",
        "_postman_id": "b9cb7cff-654c-497b-bd50-f29699bb1fb9",
        "description": "",
        "schema": "https:\/\/schema.getpostman.com\/json\/collection\/v2.1.0\/collection.json"
    },
    "item": [
        {
            "name": "Endpoints",
            "description": "",
            "item": [
                {
                    "name": "POST api\/register",
                    "request": {
                        "url": {
                            "host": "{{baseUrl}}",
                            "path": "api\/register",
                            "query": [],
                            "raw": "{{baseUrl}}\/api\/register"
                        },
                        "method": "POST",
                        "header": [
                            {
                                "key": "Content-Type",
                                "value": "application\/json"
                            },
                            {
                                "key": "Accept",
                                "value": "application\/json"
                            }
                        ],
                        "body": {
                            "mode": "raw",
                            "raw": "{\"name\":\"zmippnjuvkumgasffpxiwzgkusgaxkjhipzhqkxjdojwsccdivaygvdmpvlfbolpslijdlehwddmzihsdqerjzr\",\"email\":\"rosemarie.wyman@example.net\",\"password\":\"M\\\/hq_hT20Y<~\"}"
                        },
                        "description": "",
                        "auth": {
                            "type": "noauth"
                        }
                    },
                    "response": []
                },
                {
                    "name": "POST api\/login",
                    "request": {
                        "url": {
                            "host": "{{baseUrl}}",
                            "path": "api\/login",
                            "query": [],
                            "raw": "{{baseUrl}}\/api\/login"
                        },
                        "method": "POST",
                        "header": [
                            {
                                "key": "Content-Type",
                                "value": "application\/json"
                            },
                            {
                                "key": "Accept",
                                "value": "application\/json"
                            }
                        ],
                        "body": {
                            "mode": "raw",
                            "raw": "{\"email\":\"sarina.deckow@example.net\",\"password\":\"oJC^42fG-o?5~\"}"
                        },
                        "description": "",
                        "auth": {
                            "type": "noauth"
                        }
                    },
                    "response": []
                },
                {
                    "name": "POST api\/logout",
                    "request": {
                        "url": {
                            "host": "{{baseUrl}}",
                            "path": "api\/logout",
                            "query": [],
                            "raw": "{{baseUrl}}\/api\/logout"
                        },
                        "method": "POST",
                        "header": [
                            {
                                "key": "Content-Type",
                                "value": "application\/json"
                            },
                            {
                                "key": "Accept",
                                "value": "application\/json"
                            }
                        ],
                        "body": null,
                        "description": "",
                        "auth": {
                            "type": "noauth"
                        }
                    },
                    "response": []
                },
                {
                    "name": "GET api\/fetchAll",
                    "request": {
                        "url": {
                            "host": "{{baseUrl}}",
                            "path": "api\/fetchAll",
                            "query": [],
                            "raw": "{{baseUrl}}\/api\/fetchAll"
                        },
                        "method": "GET",
                        "header": [
                            {
                                "key": "Content-Type",
                                "value": "application\/json"
                            },
                            {
                                "key": "Accept",
                                "value": "application\/json"
                            }
                        ],
                        "body": null,
                        "description": "",
                        "auth": {
                            "type": "noauth"
                        }
                    },
                    "response": [
                        {
                            "header": [
                                {
                                    "key": "cache-control",
                                    "value": "no-cache, private"
                                },
                                {
                                    "key": "content-type",
                                    "value": "application\/json"
                                },
                                {
                                    "key": "x-ratelimit-limit",
                                    "value": "60"
                                },
                                {
                                    "key": "x-ratelimit-remaining",
                                    "value": "59"
                                },
                                {
                                    "key": "access-control-allow-origin",
                                    "value": "*"
                                }
                            ],
                            "code": 200,
                            "body": "{\"meta\":{\"success\":true,\"message\":\"Movie List\"},\"body\":{\"current_page\":1,\"data\":[{\"id\":1,\"user_id\":2,\"title\":\"this is title update double\",\"summary\":\"this is summary\",\"image\":\"default.jpg\",\"url\":\"http:\\\/\\\/kris.biz\\\/corporis-accusamus-saepe-aut-ea\",\"genres\":\"this is genres\",\"author\":\"this is author\",\"tags\":\"this is tags\",\"imdb_rating\":3.5,\"pdf\":\"test\",\"created_at\":\"2023-07-06T16:42:42.000000Z\",\"updated_at\":\"2023-07-06T16:43:21.000000Z\",\"user\":{\"id\":2,\"name\":\"Prof. Myra Vandervort MD\",\"email\":\"concepcion.mohr@example.org\",\"email_verified_at\":\"2023-07-06T16:42:41.000000Z\",\"created_at\":\"2023-07-06T16:42:41.000000Z\",\"updated_at\":\"2023-07-06T16:42:41.000000Z\"},\"comments\":[]},{\"id\":2,\"user_id\":2,\"title\":\"Est consequuntur omnis alias voluptas nam sit.\",\"summary\":\"Unde corrupti doloremque deserunt sed eos blanditiis officia error. Dolor sit totam blanditiis corporis doloremque quam. Sit dolore incidunt delectus sunt nobis. Minus reprehenderit laboriosam dolorum consequuntur.\",\"image\":\"default.jpg\",\"url\":\"https:\\\/\\\/purdy.info\\\/aperiam-quia-qui-beatae-consectetur.html\",\"genres\":\"Katrine Shields\",\"author\":\"Mustafa Walker\",\"tags\":\"est facere inventore\",\"imdb_rating\":5.89,\"pdf\":\"http:\\\/\\\/wilkinson.com\\\/\\\/dummy.pdf\",\"created_at\":\"2023-07-06T16:42:42.000000Z\",\"updated_at\":\"2023-07-06T16:42:42.000000Z\",\"user\":{\"id\":2,\"name\":\"Prof. Myra Vandervort MD\",\"email\":\"concepcion.mohr@example.org\",\"email_verified_at\":\"2023-07-06T16:42:41.000000Z\",\"created_at\":\"2023-07-06T16:42:41.000000Z\",\"updated_at\":\"2023-07-06T16:42:41.000000Z\"},\"comments\":[{\"id\":3,\"comment\":\"Quia voluptatem ut eligendi nihil libero et. Sit ipsam sunt ipsa voluptatum corporis. Officiis id eos necessitatibus. Deserunt ipsum ducimus non quod.\",\"user_id\":6,\"movie_id\":2,\"created_at\":\"2023-07-06T16:42:42.000000Z\",\"updated_at\":\"2023-07-06T16:42:42.000000Z\"},{\"id\":6,\"comment\":\"Repellat pariatur consequatur iste totam est porro provident tempora. Laudantium vero voluptatem saepe nemo et expedita itaque veritatis. A quisquam distinctio maiores aut accusantium dolores porro dolorem. Aut iste fuga id ab aperiam.\",\"user_id\":6,\"movie_id\":2,\"created_at\":\"2023-07-06T16:42:42.000000Z\",\"updated_at\":\"2023-07-06T16:42:42.000000Z\"},{\"id\":7,\"comment\":\"Minima error eveniet enim cumque hic. Est est sapiente ullam facere tempore vitae.\",\"user_id\":2,\"movie_id\":2,\"created_at\":\"2023-07-06T16:42:42.000000Z\",\"updated_at\":\"2023-07-06T16:42:42.000000Z\"}]},{\"id\":3,\"user_id\":3,\"title\":\"Libero sapiente repellendus excepturi aliquam sapiente et animi.\",\"summary\":\"Eius nihil autem consequuntur quibusdam hic. Facere qui voluptatem similique dolorem rerum molestias quod. Nam voluptatem rerum inventore vero. Quo veritatis cupiditate commodi architecto voluptate nam.\",\"image\":\"default.jpg\",\"url\":\"http:\\\/\\\/www.orn.info\\\/distinctio-ut-commodi-quibusdam-ullam-voluptas-fuga\",\"genres\":\"Prof. Gerardo Rath DDS\",\"author\":\"Milo Davis\",\"tags\":\"veritatis sed officia\",\"imdb_rating\":6.67,\"pdf\":\"http:\\\/\\\/www.mosciski.com\\\/\\\/dummy.pdf\",\"created_at\":\"2023-07-06T16:42:42.000000Z\",\"updated_at\":\"2023-07-06T16:42:42.000000Z\",\"user\":{\"id\":3,\"name\":\"Dr. Bo Tremblay\",\"email\":\"jacobs.jeffery@example.net\",\"email_verified_at\":\"2023-07-06T16:42:41.000000Z\",\"created_at\":\"2023-07-06T16:42:41.000000Z\",\"updated_at\":\"2023-07-06T16:42:41.000000Z\"},\"comments\":[{\"id\":10,\"comment\":\"In quasi accusamus in dignissimos cum. Necessitatibus vel tempore totam minima ipsum voluptatem aliquam. Occaecati mollitia magnam accusantium. Unde minima voluptates commodi voluptatem consectetur nihil eaque.\",\"user_id\":1,\"movie_id\":3,\"created_at\":\"2023-07-06T16:42:42.000000Z\",\"updated_at\":\"2023-07-06T16:42:42.000000Z\"}]},{\"id\":4,\"user_id\":7,\"title\":\"Aut sit perferendis in iusto id ullam.\",\"summary\":\"Ex odio nostrum veritatis impedit rerum ea. Esse quis similique unde aperiam ut natus. Sit quia qui laboriosam at. Voluptatem commodi mollitia perspiciatis et porro et.\",\"image\":\"default.jpg\",\"url\":\"http:\\\/\\\/hegmann.biz\\\/nihil-architecto-et-et\",\"genres\":\"Rhoda Rath\",\"author\":\"Francesca Brakus\",\"tags\":\"quis quia aut\",\"imdb_rating\":7.29,\"pdf\":\"http:\\\/\\\/www.jakubowski.info\\\/\\\/dummy.pdf\",\"created_at\":\"2023-07-06T16:42:42.000000Z\",\"updated_at\":\"2023-07-06T16:42:42.000000Z\",\"user\":{\"id\":7,\"name\":\"Mrs. Madie Doyle\",\"email\":\"ida.roberts@example.net\",\"email_verified_at\":\"2023-07-06T16:42:41.000000Z\",\"created_at\":\"2023-07-06T16:42:41.000000Z\",\"updated_at\":\"2023-07-06T16:42:41.000000Z\"},\"comments\":[{\"id\":2,\"comment\":\"Nisi pariatur reprehenderit voluptas eum consequatur est sed. Omnis ratione molestiae corrupti nihil voluptate quasi est magni. Adipisci quia itaque eos consequatur. Perspiciatis ipsa in est delectus ratione at.\",\"user_id\":2,\"movie_id\":4,\"created_at\":\"2023-07-06T16:42:42.000000Z\",\"updated_at\":\"2023-07-06T16:42:42.000000Z\"}]},{\"id\":5,\"user_id\":10,\"title\":\"Et officiis accusantium a consequatur ipsum.\",\"summary\":\"Accusamus voluptas eos velit eligendi est fuga. Labore repellendus amet omnis incidunt impedit quod minima. Alias sit iure aut ut rerum.\",\"image\":\"default.jpg\",\"url\":\"http:\\\/\\\/www.bailey.biz\\\/repellendus-odit-pariatur-veritatis-qui-et\",\"genres\":\"Lonzo Robel\",\"author\":\"Maida Towne\",\"tags\":\"nesciunt suscipit esse\",\"imdb_rating\":4.04,\"pdf\":\"http:\\\/\\\/torphy.com\\\/aliquam-error-sunt-et-atque-adipisci-reiciendis-doloribus.html\\\/dummy.pdf\",\"created_at\":\"2023-07-06T16:42:42.000000Z\",\"updated_at\":\"2023-07-06T16:42:42.000000Z\",\"user\":{\"id\":10,\"name\":\"Admin\",\"email\":\"admin@gmail.com\",\"email_verified_at\":null,\"created_at\":null,\"updated_at\":null},\"comments\":[]},{\"id\":6,\"user_id\":2,\"title\":\"Nostrum quis odit dolorem ipsum qui debitis vel dicta.\",\"summary\":\"Harum quibusdam quis blanditiis consequatur magnam mollitia temporibus. Magnam molestias fuga odit iure recusandae consectetur perspiciatis. Non facilis perferendis ut esse eos qui itaque. Et perspiciatis et voluptas laborum fugit.\",\"image\":\"default.jpg\",\"url\":\"http:\\\/\\\/www.carter.com\\\/\",\"genres\":\"Angelita West I\",\"author\":\"Robyn Bode\",\"tags\":\"explicabo sit ut\",\"imdb_rating\":6.84,\"pdf\":\"http:\\\/\\\/rohan.com\\\/\\\/dummy.pdf\",\"created_at\":\"2023-07-06T16:42:42.000000Z\",\"updated_at\":\"2023-07-06T16:42:42.000000Z\",\"user\":{\"id\":2,\"name\":\"Prof. Myra Vandervort MD\",\"email\":\"concepcion.mohr@example.org\",\"email_verified_at\":\"2023-07-06T16:42:41.000000Z\",\"created_at\":\"2023-07-06T16:42:41.000000Z\",\"updated_at\":\"2023-07-06T16:42:41.000000Z\"},\"comments\":[]},{\"id\":7,\"user_id\":8,\"title\":\"Rerum omnis consequatur non explicabo laudantium dolorem quia.\",\"summary\":\"Tempore beatae est quis. Quam et quidem autem. Alias et ut consequatur magnam inventore molestiae doloremque vel. Tenetur aut animi culpa reprehenderit quis voluptatem eos.\",\"image\":\"default.jpg\",\"url\":\"https:\\\/\\\/www.hoppe.biz\\\/quo-eveniet-labore-quisquam\",\"genres\":\"Crystal Prosacco\",\"author\":\"Janae Hammes PhD\",\"tags\":\"rerum error natus\",\"imdb_rating\":7.31,\"pdf\":\"http:\\\/\\\/price.com\\\/\\\/dummy.pdf\",\"created_at\":\"2023-07-06T16:42:42.000000Z\",\"updated_at\":\"2023-07-06T16:42:42.000000Z\",\"user\":{\"id\":8,\"name\":\"Devante Kulas\",\"email\":\"filiberto04@example.net\",\"email_verified_at\":\"2023-07-06T16:42:41.000000Z\",\"created_at\":\"2023-07-06T16:42:41.000000Z\",\"updated_at\":\"2023-07-06T16:42:41.000000Z\"},\"comments\":[{\"id\":1,\"comment\":\"Iure pariatur voluptatem nostrum qui quidem quo consequatur dicta. Aut numquam explicabo ex et. Corporis ab laborum quidem labore eveniet et harum. Ratione necessitatibus omnis aut assumenda dolor architecto eveniet iste.\",\"user_id\":9,\"movie_id\":7,\"created_at\":\"2023-07-06T16:42:42.000000Z\",\"updated_at\":\"2023-07-06T16:42:42.000000Z\"}]}],\"first_page_url\":\"http:\\\/\\\/localhost\\\/api\\\/fetchAll?page=1\",\"from\":1,\"last_page\":3,\"last_page_url\":\"http:\\\/\\\/localhost\\\/api\\\/fetchAll?page=3\",\"links\":[{\"url\":null,\"label\":\"&laquo; Previous\",\"active\":false},{\"url\":\"http:\\\/\\\/localhost\\\/api\\\/fetchAll?page=1\",\"label\":\"1\",\"active\":true},{\"url\":\"http:\\\/\\\/localhost\\\/api\\\/fetchAll?page=2\",\"label\":\"2\",\"active\":false},{\"url\":\"http:\\\/\\\/localhost\\\/api\\\/fetchAll?page=3\",\"label\":\"3\",\"active\":false},{\"url\":\"http:\\\/\\\/localhost\\\/api\\\/fetchAll?page=2\",\"label\":\"Next &raquo;\",\"active\":false}],\"next_page_url\":\"http:\\\/\\\/localhost\\\/api\\\/fetchAll?page=2\",\"path\":\"http:\\\/\\\/localhost\\\/api\\\/fetchAll\",\"per_page\":7,\"prev_page_url\":null,\"to\":7,\"total\":15}}",
                            "name": ""
                        }
                    ]
                },
                {
                    "name": "GET api\/relatedMovie\/{id}",
                    "request": {
                        "url": {
                            "host": "{{baseUrl}}",
                            "path": "api\/relatedMovie\/:id",
                            "query": [],
                            "raw": "{{baseUrl}}\/api\/relatedMovie\/:id",
                            "variable": [
                                {
                                    "id": "id",
                                    "key": "id",
                                    "value": "itaque",
                                    "description": "The ID of the relatedMovie."
                                }
                            ]
                        },
                        "method": "GET",
                        "header": [
                            {
                                "key": "Content-Type",
                                "value": "application\/json"
                            },
                            {
                                "key": "Accept",
                                "value": "application\/json"
                            }
                        ],
                        "body": null,
                        "description": "",
                        "auth": {
                            "type": "noauth"
                        }
                    },
                    "response": [
                        {
                            "header": [
                                {
                                    "key": "cache-control",
                                    "value": "no-cache, private"
                                },
                                {
                                    "key": "content-type",
                                    "value": "application\/json"
                                },
                                {
                                    "key": "access-control-allow-origin",
                                    "value": "*"
                                }
                            ],
                            "code": 401,
                            "body": "{\"message\":\"Unauthenticated.\"}",
                            "name": ""
                        }
                    ]
                },
                {
                    "name": "POST api\/movies\/create",
                    "request": {
                        "url": {
                            "host": "{{baseUrl}}",
                            "path": "api\/movies\/create",
                            "query": [],
                            "raw": "{{baseUrl}}\/api\/movies\/create"
                        },
                        "method": "POST",
                        "header": [
                            {
                                "key": "Content-Type",
                                "value": "application\/json"
                            },
                            {
                                "key": "Accept",
                                "value": "application\/json"
                            }
                        ],
                        "body": {
                            "mode": "raw",
                            "raw": "{\"title\":\"suscipit\",\"summary\":\"sit\",\"image\":\"assumenda\",\"genres\":\"atque\",\"author\":\"incidunt\",\"tags\":\"nam\",\"imdb_rating\":\"quos\",\"pdf\":\"et\"}"
                        },
                        "description": "",
                        "auth": {
                            "type": "noauth"
                        }
                    },
                    "response": []
                },
                {
                    "name": "GET api\/movies\/details\/{id}",
                    "request": {
                        "url": {
                            "host": "{{baseUrl}}",
                            "path": "api\/movies\/details\/:id",
                            "query": [],
                            "raw": "{{baseUrl}}\/api\/movies\/details\/:id",
                            "variable": [
                                {
                                    "id": "id",
                                    "key": "id",
                                    "value": "veritatis",
                                    "description": "The ID of the detail."
                                }
                            ]
                        },
                        "method": "GET",
                        "header": [
                            {
                                "key": "Content-Type",
                                "value": "application\/json"
                            },
                            {
                                "key": "Accept",
                                "value": "application\/json"
                            }
                        ],
                        "body": null,
                        "description": "",
                        "auth": {
                            "type": "noauth"
                        }
                    },
                    "response": [
                        {
                            "header": [
                                {
                                    "key": "cache-control",
                                    "value": "no-cache, private"
                                },
                                {
                                    "key": "content-type",
                                    "value": "application\/json"
                                },
                                {
                                    "key": "access-control-allow-origin",
                                    "value": "*"
                                }
                            ],
                            "code": 401,
                            "body": "{\"message\":\"Unauthenticated.\"}",
                            "name": ""
                        }
                    ]
                },
                {
                    "name": "POST api\/movies\/update\/{id}",
                    "request": {
                        "url": {
                            "host": "{{baseUrl}}",
                            "path": "api\/movies\/update\/:id",
                            "query": [],
                            "raw": "{{baseUrl}}\/api\/movies\/update\/:id",
                            "variable": [
                                {
                                    "id": "id",
                                    "key": "id",
                                    "value": "excepturi",
                                    "description": "The ID of the update."
                                }
                            ]
                        },
                        "method": "POST",
                        "header": [
                            {
                                "key": "Content-Type",
                                "value": "application\/json"
                            },
                            {
                                "key": "Accept",
                                "value": "application\/json"
                            }
                        ],
                        "body": {
                            "mode": "raw",
                            "raw": "{\"title\":\"ea\",\"summary\":\"molestiae\",\"genres\":\"maxime\",\"author\":\"dicta\",\"tags\":\"quisquam\",\"imdb_rating\":\"sint\",\"pdf\":\"soluta\"}"
                        },
                        "description": "",
                        "auth": {
                            "type": "noauth"
                        }
                    },
                    "response": []
                },
                {
                    "name": "DELETE api\/movies\/delete\/{id}",
                    "request": {
                        "url": {
                            "host": "{{baseUrl}}",
                            "path": "api\/movies\/delete\/:id",
                            "query": [],
                            "raw": "{{baseUrl}}\/api\/movies\/delete\/:id",
                            "variable": [
                                {
                                    "id": "id",
                                    "key": "id",
                                    "value": "ipsa",
                                    "description": "The ID of the delete."
                                }
                            ]
                        },
                        "method": "DELETE",
                        "header": [
                            {
                                "key": "Content-Type",
                                "value": "application\/json"
                            },
                            {
                                "key": "Accept",
                                "value": "application\/json"
                            }
                        ],
                        "body": null,
                        "description": "",
                        "auth": {
                            "type": "noauth"
                        }
                    },
                    "response": []
                },
                {
                    "name": "POST api\/comments\/create",
                    "request": {
                        "url": {
                            "host": "{{baseUrl}}",
                            "path": "api\/comments\/create",
                            "query": [],
                            "raw": "{{baseUrl}}\/api\/comments\/create"
                        },
                        "method": "POST",
                        "header": [
                            {
                                "key": "Content-Type",
                                "value": "application\/json"
                            },
                            {
                                "key": "Accept",
                                "value": "application\/json"
                            }
                        ],
                        "body": {
                            "mode": "raw",
                            "raw": "{\"comment\":\"quibusdam\",\"movie_id\":\"qui\"}"
                        },
                        "description": "",
                        "auth": {
                            "type": "noauth"
                        }
                    },
                    "response": []
                }
            ]
        }
    ],
    "auth": {
        "type": "noauth"
    }
}